build/hyperbus_1.0/sim-verilator/trace.vcd
$version Generated by VerilatedVcd $end
$date Sun Dec 13 17:25:29 2020
 $end
$timescale  10s $end

 $scope module TOP $end
  $var wire 32 3 addr [31:0] $end
  $var wire  1 8 busy $end
  $var wire  1 + clk $end
  $var wire  1 , clk90 $end
  $var wire 16 4 datar [15:0] $end
  $var wire 16 5 dataw [15:0] $end
  $var wire  1 . hbus_clk $end
  $var wire  1 / hbus_csn $end
  $var wire  8 1 hbus_dq [7:0] $end
  $var wire  1 0 hbus_rstn $end
  $var wire  1 2 hbus_rwds $end
  $var wire  1 7 rrq $end
  $var wire  1 - rst $end
  $var wire  1 6 wrq $end
  $scope module hyperbus_test_top $end
   $var wire 32 3 addr [31:0] $end
   $var wire  1 8 busy $end
   $var wire  1 + clk $end
   $var wire  1 , clk90 $end
   $var wire 16 4 datar [15:0] $end
   $var wire 16 5 dataw [15:0] $end
   $var wire  1 . hbus_clk $end
   $var wire  1 / hbus_csn $end
   $var wire  8 1 hbus_dq [7:0] $end
   $var wire  1 0 hbus_rstn $end
   $var wire  1 2 hbus_rwds $end
   $var wire  1 7 rrq $end
   $var wire  1 - rst $end
   $var wire  1 6 wrq $end
   $scope module hbus0 $end
    $var wire 32 C COUNTER_WIDTH [31:0] $end
    $var wire  6 E STATE_COMMAND [5:0] $end
    $var wire  6 I STATE_ERROR [5:0] $end
    $var wire  6 D STATE_IDLE [5:0] $end
    $var wire  6 F STATE_LATENCY [5:0] $end
    $var wire  6 G STATE_READ [5:0] $end
    $var wire  6 H STATE_WRITE [5:0] $end
    $var wire 32 @ TACC_COUNT [31:0] $end
    $var wire 24 > TARGET [23:0] $end
    $var wire 32 ? WIDTH [31:0] $end
    $var wire 32 3 addr [31:0] $end
    $var wire  1 8 busy $end
    $var wire 48 ' ca [47:0] $end
    $var wire  1 + clk $end
    $var wire  1 , clk90 $end
    $var wire  1 & clk_oe $end
    $var wire  4 * count [3:0] $end
    $var wire  1 % data_oe $end
    $var wire 16 9 datar [15:0] $end
    $var wire 16 $ dataw [15:0] $end
    $var wire 16 4 din [15:0] $end
    $var wire 16 5 dout [15:0] $end
    $var wire  1 A dready $end
    $var wire  1 B dvalid $end
    $var wire  1 . hbus_clk $end
    $var wire  1 / hbus_csn $end
    $var wire  8 1 hbus_dq [7:0] $end
    $var wire  1 0 hbus_rstn $end
    $var wire  1 2 hbus_rwds $end
    $var wire  1 7 rrq $end
    $var wire  1 - rst $end
    $var wire  1 ; rwds_oe $end
    $var wire  2 : rwdsr [1:0] $end
    $var wire  2 J rwdsw [1:0] $end
    $var wire  6 # state [5:0] $end
    $var wire  1 ) timeout_error $end
    $var wire  1 6 wrq $end
    $scope module ddr_data $end
     $var wire 24 > TARGET [23:0] $end
     $var wire 32 ? WIDTH [31:0] $end
     $var wire  1 + clk $end
     $var wire 16 9 datar [15:0] $end
     $var wire 16 $ dataw [15:0] $end
     $var wire  8 1 dq [7:0] $end
     $var wire  1 % oe $end
     $scope module genblk1 $end
      $var wire 16 9 d [15:0] $end
      $var wire  8 < q [7:0] $end
     $upscope $end
    $upscope $end
    $scope module ddr_rwds $end
     $var wire 24 > TARGET [23:0] $end
     $var wire 32 K WIDTH [31:0] $end
     $var wire  1 + clk $end
     $var wire  2 : datar [1:0] $end
     $var wire  2 J dataw [1:0] $end
     $var wire  1 2 dq [0:0] $end
     $var wire  1 ; oe $end
     $scope module genblk1 $end
      $var wire  2 : d [1:0] $end
      $var wire  1 = q [0:0] $end
     $upscope $end
    $upscope $end
   $upscope $end
  $upscope $end
 $upscope $end
$enddefinitions $end


#0
b000001 #
b0000000000000000 $
0%
0&
b000000000000000000000000000000000000000000000000 '
0)
b0000 *
1+
1,
0-
0.
1/
10
b00000000 1
02
b00000000000000001010101010101010 3
b0000000000000000 4
b0000000000000000 5
06
17
08
b0000000000000000 9
b00 :
0;
b00000000 <
0=
b010100110100100101001101 >
b00000000000000000000000000001000 ?
b00000000000000000000000000000111 @
0A
0B
b00000000000000000000000000000100 C
b000001 D
b000010 E
b000100 F
b001000 G
b010000 H
b100000 I
b00 J
b00000000000000000000000000000001 K
#10
0,
#20
0+
#30
1,
#40
b000010 #
b1000000000000000 $
1%
1&
b100000000000000000010101010101010000000000000010 '
b0011 *
1+
1.
0/
18
#50
0,
0.
#60
0+
b10000000 1
b10000000 <
#70
1,
1.
#80
b0001010101010101 $
b000101010101010100000000000000100000000000000000 '
b0010 *
1+
b00000000 1
b00000000 <
#90
0,
0.
#100
0+
b00010101 1
b00010101 <
#110
1,
1.
#120
b0000000000000010 $
b000000000000001000000000000000000000000000000000 '
b0001 *
1+
b01010101 1
b01010101 <
#130
0,
0.
#140
0+
b00000000 1
b00000000 <
#150
1,
1.
#160
b0000000000000000 $
b000000000000000000000000000000000000000000000000 '
b0000 *
1+
b00000010 1
b00000010 <
#170
0,
0.
#180
0+
b00000000 1
b00000000 <
#190
1,
1.
#200
b000100 #
b0110 *
1+
#210
0,
0.
#220
0+
#230
1,
1.
#240
b0101 *
1+
#250
0,
0.
#260
0+
#270
1,
1.
#280
b0100 *
1+
#290
0,
0.
#300
0+
#310
1,
1.
#320
b0011 *
1+
#330
0,
0.
#340
0+
#350
1,
1.
#360
b0010 *
1+
#370
0,
0.
#380
0+
#390
1,
1.
#400
b0001 *
1+
#410
0,
0.
#420
0+
#430
1,
1.
#440
b0000 *
1+
#450
0,
0.
#460
0+
#470
1,
1.
#480
b001000 #
b1111 *
1+
#490
0,
0.
#500
0+
#510
1,
1.
#520
0%
b1110 *
1+
#530
0,
0.
#540
0+
#550
1,
1.
#560
b1101 *
1+
#570
0,
0.
#580
0+
#590
1,
1.
#600
b1100 *
1+
#610
0,
0.
#620
0+
#630
1,
1.
#640
b1011 *
1+
#650
0,
0.
#660
0+
#670
1,
1.
#680
b1010 *
1+
#690
0,
0.
#700
0+
#710
1,
1.
#720
b1001 *
1+
#730
0,
0.
#740
0+
#750
1,
1.
#760
b1000 *
1+
#770
0,
0.
#780
0+
#790
1,
1.
#800
b0111 *
1+
#810
0,
0.
#820
0+
#830
1,
1.
#840
b0110 *
1+
#850
0,
0.
#860
0+
#870
1,
1.
#880
b0101 *
1+
#890
0,
0.
#900
0+
#910
1,
1.
#920
b0100 *
1+
#930
0,
0.
#940
0+
#950
1,
1.
#960
b0011 *
1+
#970
0,
0.
#980
0+
#990
1,
1.
#1000
b0010 *
1+
#1010
0,
0.
#1020
0+
#1030
1,
1.
#1040
b0001 *
1+
#1050
0,
0.
#1060
0+
#1070
1,
1.
#1080
b0000 *
1+
#1090
0,
0.
#1100
0+
#1110
1,
1.
#1120
b100000 #
1)
b1111 *
1+
1/
