build/hyperbus_1.0/sim-verilator/trace.vcd
$version Generated by VerilatedVcd $end
$date Mon Dec 14 16:53:59 2020
 $end
$timescale  10s $end

 $scope module TOP $end
  $var wire 32 4 addr [31:0] $end
  $var wire  1 9 busy $end
  $var wire  1 , clk $end
  $var wire  1 - clk90 $end
  $var wire 16 5 datar [15:0] $end
  $var wire 16 6 dataw [15:0] $end
  $var wire  1 / hbus_clk $end
  $var wire  1 0 hbus_csn $end
  $var wire  8 2 hbus_dq [7:0] $end
  $var wire  1 1 hbus_rstn $end
  $var wire  1 3 hbus_rwds $end
  $var wire  1 8 rrq $end
  $var wire  1 . rst $end
  $var wire  1 7 wrq $end
  $scope module hyperbus_test_top $end
   $var wire 32 4 addr [31:0] $end
   $var wire  1 9 busy $end
   $var wire  1 , clk $end
   $var wire  1 - clk90 $end
   $var wire 16 5 datar [15:0] $end
   $var wire 16 6 dataw [15:0] $end
   $var wire  1 / hbus_clk $end
   $var wire  1 0 hbus_csn $end
   $var wire  8 2 hbus_dq [7:0] $end
   $var wire  1 1 hbus_rstn $end
   $var wire  1 3 hbus_rwds $end
   $var wire  1 8 rrq $end
   $var wire  1 . rst $end
   $var wire  1 7 wrq $end
   $scope module hbus0 $end
    $var wire 32 E COUNTER_WIDTH [31:0] $end
    $var wire  7 H STATE_COMMAND [6:0] $end
    $var wire  7 L STATE_ERROR [6:0] $end
    $var wire  7 F STATE_IDLE [6:0] $end
    $var wire  7 I STATE_LATENCY [6:0] $end
    $var wire  7 J STATE_READ [6:0] $end
    $var wire  7 G STATE_START [6:0] $end
    $var wire  7 K STATE_WRITE [6:0] $end
    $var wire 32 A TACC_COUNT [31:0] $end
    $var wire 24 ? TARGET [23:0] $end
    $var wire 32 @ WIDTH [31:0] $end
    $var wire 32 4 adr_i [31:0] $end
    $var wire  1 9 busy $end
    $var wire 48 ( ca [47:0] $end
    $var wire  1 , clk $end
    $var wire  1 - clk90 $end
    $var wire  1 ' clk_oe $end
    $var wire  4 + count [3:0] $end
    $var wire 16 5 dat_i [15:0] $end
    $var wire 16 6 dat_o [15:0] $end
    $var wire  1 & data_oe $end
    $var wire 16 : datar [15:0] $end
    $var wire 16 % dataw [15:0] $end
    $var wire  1 B dready $end
    $var wire  1 C dvalid $end
    $var wire  1 # error_o $end
    $var wire  1 / hbus_clk $end
    $var wire  1 0 hbus_csn $end
    $var wire  8 2 hbus_dq [7:0] $end
    $var wire  1 1 hbus_rstn $end
    $var wire  1 3 hbus_rwds $end
    $var wire  1 D reg_space_i $end
    $var wire  1 8 rrq $end
    $var wire  1 . rst $end
    $var wire  1 < rwds_oe $end
    $var wire  2 ; rwdsr [1:0] $end
    $var wire  2 M rwdsw [1:0] $end
    $var wire  7 $ state [6:0] $end
    $var wire  1 * timeout_error $end
    $var wire  1 7 wrq $end
    $scope module ddr_data $end
     $var wire 24 ? TARGET [23:0] $end
     $var wire 32 @ WIDTH [31:0] $end
     $var wire 16 % dat_i [15:0] $end
     $var wire 16 : dat_o [15:0] $end
     $var wire  8 2 dq [7:0] $end
     $var wire  1 3 inclk $end
     $var wire  1 & oe $end
     $var wire  1 , outclk $end
     $scope module genblk1 $end
      $var wire 16 : d [15:0] $end
      $var wire  8 = q [7:0] $end
     $upscope $end
    $upscope $end
    $scope module ddr_rwds $end
     $var wire 24 ? TARGET [23:0] $end
     $var wire 32 N WIDTH [31:0] $end
     $var wire  2 M dat_i [1:0] $end
     $var wire  2 ; dat_o [1:0] $end
     $var wire  1 3 dq [0:0] $end
     $var wire  1 , inclk $end
     $var wire  1 < oe $end
     $var wire  1 , outclk $end
     $scope module genblk1 $end
      $var wire  2 ; d [1:0] $end
      $var wire  1 > q [0:0] $end
     $upscope $end
    $upscope $end
   $upscope $end
  $upscope $end
 $upscope $end
$enddefinitions $end


#0
0#
b0000001 $
b0000000000000000 %
1&
0'
b000000000000000000000000000000000000000000000000 (
0*
b0000 +
1,
1-
0.
0/
10
11
b00000000 2
03
b00000000000000001010101010101010 4
b0000000000000000 5
b0000000000000000 6
07
18
09
b0000000000000000 :
b00 ;
0<
b00000000 =
0>
b010100110100100101001101 ?
b00000000000000000000000000001000 @
b00000000000000000000000000000111 A
0B
0C
0D
b00000000000000000000000000000100 E
b0000001 F
b0000010 G
b0000100 H
b0001000 I
b0010000 J
b0100000 K
b1000000 L
b00 M
b00000000000000000000000000000001 N
#10
0-
#20
0,
#30
1-
#40
b0000010 $
b1000000000000000 %
b100000000000000000010101010101010000000000000010 (
1,
00
19
#50
0-
#60
0,
b10000000 2
b10000000 =
#70
1-
#80
b0000100 $
1'
b0011 +
1,
b00000000 2
b00000000 =
#90
0-
1/
#100
0,
b10000000 2
b10000000 =
#110
1-
0/
#120
b0001010101010101 %
b000101010101010100000000000000100000000000000000 (
b0010 +
1,
b00000000 2
b00000000 =
#130
0-
1/
#140
0,
b00010101 2
b00010101 =
#150
1-
0/
#160
b0000000000000010 %
b000000000000001000000000000000000000000000000000 (
b0001 +
1,
b01010101 2
b01010101 =
#170
0-
1/
#180
0,
b00000000 2
b00000000 =
#190
1-
0/
#200
b0000000000000000 %
b000000000000000000000000000000000000000000000000 (
b0000 +
1,
b00000010 2
b00000010 =
#210
0-
1/
#220
0,
b00000000 2
b00000000 =
#230
1-
0/
#240
b0001000 $
0&
b0110 +
1,
#250
0-
1/
#260
0,
#270
1-
0/
#280
b0101 +
1,
#290
0-
1/
#300
0,
#310
1-
0/
#320
b0100 +
1,
#330
0-
1/
#340
0,
#350
1-
0/
#360
b0011 +
1,
#370
0-
1/
#380
0,
#390
1-
0/
#400
b0010 +
1,
#410
0-
1/
#420
0,
#430
1-
0/
#440
b0001 +
1,
#450
0-
1/
#460
0,
#470
1-
0/
#480
b0000 +
1,
#490
0-
1/
#500
0,
#510
1-
0/
#520
b0010000 $
b1111 +
1,
#530
0-
1/
#540
0,
#550
1-
0/
#560
b1110 +
1,
#570
0-
1/
#580
0,
#590
1-
0/
#600
b1101 +
1,
#610
0-
1/
#620
0,
#630
1-
0/
#640
b1100 +
1,
#650
0-
1/
#660
0,
#670
1-
0/
#680
b1011 +
1,
#690
0-
1/
#700
0,
#710
1-
0/
#720
b1010 +
1,
#730
0-
1/
#740
0,
#750
1-
0/
#760
b1001 +
1,
#770
0-
1/
#780
0,
#790
1-
0/
#800
b1000 +
1,
#810
0-
1/
#820
0,
#830
1-
0/
#840
b0111 +
1,
#850
0-
1/
#860
0,
#870
1-
0/
#880
b0110 +
1,
#890
0-
1/
#900
0,
#910
1-
0/
#920
b0101 +
1,
#930
0-
1/
#940
0,
#950
1-
0/
#960
b0100 +
1,
#970
0-
1/
#980
0,
#990
1-
0/
#1000
b0011 +
1,
#1010
0-
1/
#1020
0,
#1030
1-
0/
#1040
b0010 +
1,
#1050
0-
1/
#1060
0,
#1070
1-
0/
#1080
b0001 +
1,
#1090
0-
1/
#1100
0,
#1110
1-
0/
#1120
b0000 +
1,
#1130
0-
1/
#1140
0,
#1150
1-
0/
#1160
1#
b1000000 $
1*
b1111 +
1,
10
